<?xml version="1.0" encoding="utf-8"?>
<!-- Generator: Adobe Illustrator 23.0.0, SVG Export Plug-In . SVG Version: 6.00 Build 0)  -->
<svg version="1.1" id="Capa_1" xmlns="http://www.w3.org/2000/svg" xmlns:xlink="http://www.w3.org/1999/xlink" x="0px" y="0px"
	 viewBox="0 0 590 789.3" style="enable-background:new 0 0 590 789.3;" xml:space="preserve">
<style type="text/css">
	.st0{clip-path:url(#SVGID_2_);fill:none;stroke:#E4E4E4;stroke-width:4;stroke-miterlimit:10;stroke-dasharray:32.09,32.09;}
	.st1{clip-path:url(#SVGID_2_);fill:#F6F5F5;}
	.st2{clip-path:url(#SVGID_2_);}
	.st3{opacity:0.1;enable-background:new    ;}
	.st4{fill:#2D2D2D;}
	.st5{fill:#6A6A6A;}
	.st6{fill:#FFFFFF;}
	.st7{fill:#00CC66;}
	.st8{fill:#EC6D1D;}
	.st9{fill:#444444;}
	.st10{fill:#757575;}
	.st11{fill:#E5AC85;}
	.st12{fill:#F2B891;}
	.st13{clip-path:url(#SVGID_2_);fill:#EC6A08;}
	.st14{clip-path:url(#SVGID_2_);fill:#63666B;}
	.st15{clip-path:url(#SVGID_2_);fill:#EC6D1D;}
	.st16{clip-path:url(#SVGID_2_);fill:#6A6A6A;}
	.st17{clip-path:url(#SVGID_2_);fill:none;}
	.st18{clip-path:url(#SVGID_2_);enable-background:new    ;}
	.st19{fill:#63666B;}
	.st20{enable-background:new    ;}
</style>
<g>
	<defs>
		<rect id="SVGID_1_" y="0" width="590" height="789.3"/>
	</defs>
	<clipPath id="SVGID_2_">
		<use xlink:href="#SVGID_1_"  style="overflow:visible;"/>
	</clipPath>
	<path class="st0" d="M558.3,629.8c28.5,51-12.7,150.9-274,81.5c-131-34.8-228.9,43.6-249-11.1C-11.8,572.6,180.1,425,286.7,528
		C384.3,622.2,506.5,537.1,558.3,629.8z"/>
	<path class="st1" d="M556.8,742H24c16.7-123.2,129.6-218.5,266.4-218.5S540.1,618.8,556.8,742z"/>
	<g class="st2">
		<g id="Capa_1-2">
			<path class="st3" d="M243.4,616.8l-0.1-1.3c0-0.1,0-0.2,0-0.3c0.1-0.2,0.3-0.3,0.5-0.2c0.2,0.1,0.3,0.3,0.4,0.4
				c0.3,0.5,0.5,1,0.7,1.6c-0.6-0.1-1.2-0.1-1.8,0"/>
			<path class="st4" d="M176.9,742.3c100.2-0.2,100.2,12,0,11.8C76.7,754.2,76.7,742.1,176.9,742.3z"/>
			<path class="st4" d="M479,717.4H204.3c-5.1,0-9.2-4.1-9.2-9.2l0,0l0,0c99.6-11.6,197.3-11.6,293.1,0
				C488.2,713.3,484.1,717.4,479,717.4L479,717.4z"/>
			<path class="st5" d="M488.2,708.7l-293.1-0.5c0.2-0.4,33.9-57.1,34.1-57.4v-126c0-6.4,5.2-11.6,11.6-11.7c0,0,0,0,0,0h200
				c6.4,0,11.6,5.2,11.6,11.6l0,0l0,0v126.9L488.2,708.7z"/>
			<path class="st6" d="M240.6,521.2c-2.1,0-3.8,1.7-3.8,3.8c0,0,0,0,0,0l0,0v114.9c0,2.1,1.7,3.8,3.8,3.8h202.1
				c2.1,0,3.8-1.7,3.8-3.8V525c0-2.1-1.7-3.8-3.8-3.8L240.6,521.2z"/>
			<path class="st4" d="M241.4,658.9c-1.7-1.6-11.2,23.3-11.9,23.7c-0.4,0.8,0,1.8,0.8,2.2l0,0c0.2,0.1,0.4,0.1,0.6,0.1
				c1.7-1.6,222.1,3.1,221.8-1.6c0-0.3,0-0.5-0.2-0.7l-11.4-22.8C440.7,657.2,242.8,659.8,241.4,658.9z"/>
			<path class="st6" d="M340.8,514.5c3.2,0,3.2,4.9,0,4.9S337.7,514.4,340.8,514.5z"/>
			<path class="st4" d="M319.2,689.2c-0.7,0-1.4,0.5-1.6,1.2l-2.6,9.8c-0.2,0.9,0.3,1.8,1.1,2c0,0,0,0,0,0l0,0
				c0.5,0.2,49.9,0,50.4,0c0.9,0,1.6-0.7,1.6-1.6c0-0.2,0-0.4-0.1-0.5l-3.4-9.8c-0.2-0.7-0.8-1.1-1.5-1.1L319.2,689.2z"/>
			<polygon class="st4" points="452.5,648.8 452.5,651 229.1,651 229.2,650.7 229.2,648.8 			"/>
			<path class="st7" d="M446.2,483.6c49.9,0.9,49.9,75,0,75.9C396.4,558.6,396.4,484.4,446.2,483.6z"/>
			<path class="st6" d="M461.9,538h-31.4c-1.2,0-2.2-1-2.2-2.2v-19c0-1.2,1-2.1,2.2-2.2h31.4c1.2,0,2.2,1,2.2,2.2v19
				C464.1,537,463.1,538,461.9,538z M430.5,516.9v19h31.4v-19H430.5z"/>
			<path class="st6" d="M456,516.9h-19.5c-0.3-8.1-0.8-19.3,9.8-19.5C456.8,497.6,456.3,508.8,456,516.9z M438.7,514.7h15.2
				c0.3-6.3,0.4-15.1-7.6-15.2S438.4,508.5,438.7,514.7L438.7,514.7z"/>
			<path class="st6" d="M446.2,523.7c2.8,0,2.8,4.4,0,4.3S443.4,523.6,446.2,523.7z"/>
			<path class="st8" d="M419.7,604.7H263.5c-1.6,0-2.9-1.3-2.9-2.9v-38.7c0-1.6,1.3-2.9,2.9-2.9h156.2c1.6,0,2.9,1.3,2.9,2.9v38.8
				C422.6,603.4,421.3,604.7,419.7,604.7z M263.5,561.3c-3.9-2.1-0.8,39.8-1.7,40.5c0,1,0.8,1.7,1.7,1.7
				c1.7-1.6,158.3,3.2,157.9-1.7v-38.7C421.9,558.2,265.3,563,263.5,561.3z"/>
			<path class="st8" d="M287.8,569.2c15.5,0.3,15.5,23.3,0,23.6C272.3,592.5,272.3,569.5,287.8,569.2z"/>
			<path class="st8" d="M315,573.1c-2.5,0-2.6,4,0,3.9h92.6c1.1-0.2,1.8-1.3,1.6-2.4c-0.2-0.8-0.8-1.4-1.6-1.6H315z"/>
			<path class="st8" d="M315,584.9c-2.5,0-2.6,4,0,3.9h39.8c1.1,0.2,2.1-0.5,2.3-1.6c0.2-1.1-0.5-2.1-1.6-2.3
				c-0.2-0.1-0.5-0.1-0.8,0H315z"/>
			<path class="st9" d="M211.1,741.6c-4.3,0.4-11.8,1-17.7,1.2c-3.6,0.2-5.6-0.2-6.8-0.7v0.4c0,0.6,0.5,1.1,1.2,1.2
				c7.7,0.4,15.5,0.4,23.2,0c0.5,0,0.9-0.4,0.8-0.9c0,0,0,0,0,0l0,0c0-0.1-0.1-0.3-0.1-0.4C211.5,742.2,211.3,741.9,211.1,741.6z"/>
			<path class="st9" d="M193.4,742.9c5.9-0.3,13.4-0.9,17.7-1.2c-4.2-5.2-17.7-8.7-17.7-8.7h-3.8c-1.9,2.7-3,6-3,9.3
				C187.8,742.7,189.8,743,193.4,742.9z"/>
			<path class="st9" d="M188.9,726.7l0.4,7c0,0.8,0.6,1.4,1.4,1.5c1,0.1,1.9,0.1,2.9-0.2c0.7-0.2,1.1-0.8,1.3-1.5l1.2-6.9
				L188.9,726.7z"/>
			<path class="st9" d="M139.5,742.8c-1.4-0.1-2.6-1-3.1-2.3l0,0c-0.2,1.2,0.5,2.4,1.6,2.8c1.4,0.6,3,0.8,4.5,0.7
				c1.3,0,2.5-0.6,3.4-1.5l0,0C144.6,743.2,142.6,743.3,139.5,742.8z"/>
			<path class="st9" d="M148.3,726.7h-3.1c-4.8-0.1-7.8,10-8.8,13.9c0.5,1.3,1.7,2.2,3.1,2.3c3.1,0.4,5.1,0.3,6.5-0.3
				c2.6-3.4,3.9-8.4,4.5-11.3C150.9,729.4,150,727.5,148.3,726.7z"/>
			<path class="st9" d="M145.6,720.1l-1.7,6.9c-0.2,0.9,0.2,1.7,1,2.1c1.1,0.6,2.3,0.9,3.6,0.9c0.6-0.1,1.1-0.5,1.3-1l2.6-7.3
				L145.6,720.1z"/>
			<path class="st10" d="M143.5,722.1c2.2,1.9,9.2,2.2,9.2,2.2c25.4-61,35.8-69.6,35.8-69.6c-3.7,23-0.6,73.9-0.6,73.9
				c4.2,1.8,9.6,0,9.6,0c0.3-32.6,4.7-64.9,13-96.4c-17.2-0.4-26.3-6.3-29.3-8.6C166.9,646.7,143.5,722.1,143.5,722.1z"/>
			<path class="st8" d="M185.6,553.5c-3.3,16.2-2.1,45.2-1.3,58.4c0.2,3.7-2.4,8.9-4.5,12.4c-0.3,0.5-0.1,1.2,0.4,1.5c0,0,0,0,0,0
				h0.1c3.5,1.8,15.4,7.4,29.2,8.1c0.9,0,1.8-0.6,2-1.5c10.2-38.2,22.1-62.6,22.1-62.6C220.4,549,185.6,553.5,185.6,553.5z"/>
			<path class="st8" d="M165.2,600c1,7.5,4.1,15.8,10.3,24.5l2.3-1.9c-1.7-7.7-2.1-15.6-1.2-23.5C172.9,598.5,168.4,599.2,165.2,600
				z"/>
			<path class="st8" d="M189.2,573.5l-3.6-20c0,0-24.3,18.5-20.4,46.5c3.2-0.8,7.7-1.6,11.5-0.8
				C177.8,590.2,181.1,580.5,189.2,573.5z"/>
			<path class="st8" d="M233.5,569.9l-9.4,20.2c1.5,12.2,8,17.4,15.1,19.5c0.3-4.5,1.4-8.9,3.1-13.1
				C233.4,587.1,233.5,569.9,233.5,569.9z"/>
			<path class="st8" d="M242.4,596.4c-1.7,4.2-2.8,8.6-3.1,13.1c18.8,7.3,23.8-6.8,23.8-6.8l-3.5-0.6
				C251.7,602.9,246.3,600.3,242.4,596.4z"/>
			<path class="st11" d="M224.9,545l-4.5,16.6c-0.5,1.7-2.2,2.8-4,2.3c0,0,0,0,0,0l0,0l-0.4-0.1c-2.2-0.9-4.4-1.9-6.5-3
				c-2.1-1.1-2.9-3.8-1.8-5.9c0,0,0,0,0,0l0,0c0.1-0.1,0.1-0.2,0.2-0.4l9.4-14L224.9,545z"/>
			<path class="st11" d="M176.9,622.3l11-0.9l4.7,4.4c0,0-1.1,1.5-4.6,0.7c-2.7-0.6-5.5-1-8.3-1.1c0,0-4.8,2.2-4.9-1.9L176.9,622.3z
				"/>
			<path class="st11" d="M261.7,605.3c1,0.7,4.2-0.8,6.2-1.9c1-0.5,1.4-1.6,1.1-2.7c-0.5-1.5-1.3-3.5-2.3-3.7
				C265.1,596.6,257.8,602.2,261.7,605.3z"/>
			<path class="st12" d="M225.9,528.7c0,0,3.7,8.6,4,13.1s1.2,7.4-4,8.3s-9.6-1.7-12-6.2c0,0-3.7-6.9-2.9-9.8
				S225.9,528.7,225.9,528.7z"/>
			<path d="M215.7,540.8h0.7c0,0-2.7-5.6-0.3-6.5s11.8-2.9,13.9-6.3c1.7-3,0.7-6.8-2.3-8.5l-0.1-0.1c-0.2-0.1-0.4,0-0.4,0.2
				l-0.2,0.4c-0.1,0.2-0.3,0.2-0.5,0.2c-0.1,0-0.2-0.1-0.2-0.2l0,0c-0.1-0.2-0.3-0.3-0.4-0.2c0,0,0,0,0,0l0,0
				c-0.1,0-0.1,0.1-0.2,0.1c-0.6,1-2.3,2.6-6.9,3.5c-6.4,1.2-10.7,3.8-10.8,8.2c0,0.2-0.2,0.3-0.4,0.3c-0.1,0-0.1,0-0.2-0.1
				c-0.5-0.3-1.2-0.4-2.3,0.4c-1.8,1.5-1,5.3,2.8,8.5c0.1,0.1,0.2,0.3,0.1,0.5c0,0-0.1,0.1-0.1,0.1c-0.7,0.5-1.8,1.5,1,3
				s4.4,1.3,5,1.2c0.2,0,0.3-0.2,0.3-0.4l-0.2-3.9c0-0.2,0.1-0.4,0.3-0.4c0,0,0,0,0,0L215.7,540.8L215.7,540.8z"/>
			<path class="st11" d="M215.9,541.6c0,0-1.4-5.5-3.9-4s1.3,6.2,3.3,6.4L215.9,541.6z"/>
		</g>
	</g>
	<polygon class="st13" points="375.4,145.6 353.9,145.6 353.9,145.6 341.3,131.7 309.8,97 320.5,85.1 362.8,131.7 	"/>
	<polygon class="st13" points="332.5,145.6 311,145.6 288.4,120.6 299.1,108.7 	"/>
	<circle class="st14" cx="277.6" cy="138.6" r="6.9"/>
	<path class="st14" d="M295.1,57.1c-2.6-2.9-7.1-3.1-10.1-0.5c-0.2,0.2-0.4,0.3-0.5,0.5L268.5,75l-10.7,11.9l-40.3,44.8l-1.9,2.1
		c-2.6,2.9-2.4,7.4,0.5,10c1.1,1,2.4,1.6,3.8,1.8c0.3,0.1,0.7,0.1,1,0.1h31.4H263h0.2c-2.1-4.4-2.1-9.5,0-13.9h-6.4h-1.9
		c-3.9,0-7.1-3.2-7.1-7.1c0-1.8,0.6-3.5,1.8-4.8l18.9-21.1l10.7-11.9l5.4-6c2.6-2.9,7.1-3.2,10-0.5c0.2,0.2,0.4,0.3,0.5,0.5l3.8,4.2
		l10.8-11.9L295.1,57.1z"/>
	<path class="st15" d="M244.4,159.4l5.1,30.5H244l-3.3-19.3l-6.4,19.3h-5.1l-6.5-19.3l-3.3,19.3h-5.7l5.2-30.5h5.7l7.1,21.3
		l7.1-21.3H244.4z"/>
	<path class="st16" d="M275,159.4l11.8,30.5h-6l-2.5-6.3h-12.4l-2.3,6.3h-6.1l9.5-24.6l3,7.7l-2,4.9h8.2l-4.2-10.5l-3-7.7l0.1-0.4
		L275,159.4z"/>
	<path class="st16" d="M306.7,184.7c0.8,0,1.6-0.1,2.4-0.3c0.7-0.2,1.5-0.5,2.2-0.8c0.7-0.4,1.3-0.8,1.9-1.3c0.6-0.5,1.1-1,1.5-1.6
		l3.9,3.4c-0.7,0.9-1.5,1.7-2.4,2.4c-1.7,1.4-3.8,2.5-6,3c-2.5,0.6-5.1,0.6-7.6-0.1c-1.3-0.4-2.5-0.9-3.6-1.5
		c-1.1-0.7-2.2-1.5-3.1-2.4c-0.9-0.9-1.7-2-2.4-3.1c-0.7-1.1-1.2-2.4-1.5-3.6c-0.7-2.7-0.7-5.5,0-8.1c0.4-1.3,0.9-2.5,1.5-3.6
		c1.3-2.3,3.2-4.1,5.5-5.5c1.1-0.7,2.4-1.2,3.6-1.6c1.3-0.4,2.7-0.5,4-0.5c1.2,0,2.4,0.1,3.5,0.4c2.2,0.5,4.2,1.6,6,3
		c0.9,0.7,1.7,1.5,2.4,2.4l-3.9,3.4c-0.9-1.2-2.1-2.2-3.4-2.9c-0.7-0.3-1.4-0.6-2.2-0.8c-2.1-0.5-4.3-0.3-6.3,0.5
		c-2.4,1-4.3,2.9-5.3,5.3c-1.1,2.5-1.1,5.3,0,7.8c1,2.4,2.9,4.3,5.3,5.3C304,184.4,305.3,184.7,306.7,184.7z"/>
	<path class="st16" d="M345.2,159.4v5.7h-12.6v6.8h12.6v5.5h-12.6v6.8h12.6v5.7h-18.3v-30.5H345.2z"/>
	<path class="st15" d="M360.2,189.9h-5.8v-30.5h11.2c2.6,0,5.2,1,7,2.9c1.9,1.8,3,4.3,3,6.9v0.4c0,2.6-1.1,5.2-3,6.9
		c-1.8,1.9-4.4,2.9-7,2.9h-5.3V189.9z M364.9,173.7c2.3,0,4.2-1.8,4.2-4.1c0-0.1,0-0.1,0-0.2c0-1.2-0.4-2.3-1.2-3.1
		c-0.8-0.8-1.9-1.3-3-1.3h-4.8v8.6H364.9z"/>
	<rect x="200.3" y="41" class="st17" width="189.4" height="162.8"/>
	<rect x="200.3" y="41" class="st17" width="189.4" height="162.8"/>
	<path class="st14" d="M217.2,204.6v2.2c0,0.5,0,0.9,0,1.2s0,0.6,0,0.8c0,0.2,0,0.3,0.1,0.5c0,0.1,0.1,0.2,0.1,0.3
		c0.2,0.1,0.4,0.2,0.6,0.2c0.4,0.1,0.8,0.1,1.2,0.1c0.3,0,0.6,0,0.9-0.1c0.2,0,0.5-0.1,0.6-0.3c0.1-0.1,0.1-0.2,0.2-0.3
		c0.1-0.1,0.1-0.2,0.1-0.4c0-0.1,0.1-0.2,0.1-0.2s0.1,0.1,0.1,0.2s0,0.1,0,0.2s0,0.2,0,0.3l-0.1,0.4c0,0.1,0,0.2-0.1,0.3
		c0,0.1,0,0.1-0.1,0.2c0,0-0.1,0.1-0.1,0.1c-0.1,0-0.2,0-0.2,0h-0.4c-0.9,0-1.6,0-2.3-0.1h-0.8h-0.8h-0.3h-0.4h-0.4
		c-0.1,0-0.2,0-0.2-0.1s0-0.1,0.1-0.1h0.2l0.2-0.1c0.1,0,0.2-0.1,0.2-0.2c0-0.1,0-0.3,0.1-0.4c0-0.4,0.1-0.7,0.1-1.1
		c0-0.5,0-1,0-1.6v-4.1c0-0.2,0-0.4,0-0.5s0-0.2,0-0.3c0-0.2,0-0.3-0.1-0.5c-0.1-0.1-0.2-0.2-0.4-0.2h-0.2H215c-0.1,0-0.1,0-0.1-0.1
		s0.1-0.1,0.2-0.1h2.9c0.1,0,0.2,0,0.2,0.1s0,0.1-0.1,0.1H218h-0.2c-0.1,0-0.3,0.1-0.4,0.2c-0.1,0.2-0.1,0.3-0.1,0.5
		c0,0.1,0,0.2,0,0.3s0,0.3,0,0.5L217.2,204.6L217.2,204.6z"/>
	<path class="st14" d="M223,209l3-7.8c0-0.1,0.1-0.3,0.2-0.4c0-0.1,0.1-0.1,0.1-0.1s0.1,0,0.1,0.1l0.2,0.3l0.3,0.6
		c0.1,0.3,0.3,0.7,0.5,1.2c0.2,0.4,0.4,0.9,0.6,1.5l0.7,1.6c0.2,0.5,0.4,1,0.6,1.5l0.5,1.2c0.1,0.2,0.2,0.5,0.3,0.7
		c0.1,0.1,0.2,0.3,0.3,0.4c0.1,0.1,0.2,0.2,0.3,0.2l0.2,0.1l0.3,0.1h0.2h0.1c0,0,0,0.1,0,0.1c0,0,0,0.1-0.1,0.1c-0.1,0-0.1,0-0.2,0
		h-1.4h-0.7h-0.3c-0.1,0-0.1,0-0.1-0.1s0,0,0,0h0.1c0.1,0,0.1-0.1,0.1-0.1c0,0,0-0.1,0-0.2l-1.1-2.9c0,0-0.1-0.1-0.1-0.1h-3
		c-0.1,0-0.1,0-0.1,0.1l-0.7,2c-0.1,0.3-0.2,0.6-0.2,0.8c0,0.1,0,0.2,0.1,0.3c0.1,0,0.2,0.1,0.3,0.1h0.1c0.1,0,0.1,0,0.1,0.1
		s-0.1,0.1-0.2,0.1h-0.3h-0.4h-1H222h-0.4c-0.2,0-0.3,0-0.3-0.1s0-0.1,0.1-0.1h0.2h0.2c0.3,0,0.5-0.2,0.7-0.4
		C222.7,209.6,222.9,209.3,223,209z M224.9,206.4h2.6c0,0,0.1,0,0.1-0.1l-1.3-3.4c-0.1-0.2-0.2-0.2-0.2,0L224.9,206.4
		C224.8,206.4,224.8,206.4,224.9,206.4L224.9,206.4z"/>
	<path class="st14" d="M246.8,201.1l0.9,7.7c0,0.1,0,0.2,0.1,0.4c0,0.1,0.1,0.3,0.1,0.4c0,0.1,0.1,0.2,0.2,0.3
		c0.1,0.1,0.2,0.2,0.3,0.2c0.2,0.1,0.3,0.1,0.5,0.1h0.3c0.1,0,0.1,0,0.1,0.1s0,0.1-0.1,0.1c-0.1,0-0.1,0-0.2,0h-1h-0.7h-0.5
		l-0.3-0.1c0,0-0.1,0-0.1-0.1c0,0,0-0.1,0.1-0.1c0,0,0.1-0.1,0.1-0.1c0-0.1,0-0.2,0-0.3l-0.6-6.4l0,0l-3.1,6.4
		c-0.1,0.3-0.2,0.5-0.3,0.5s-0.1,0.1-0.2,0.1s-0.1,0-0.2-0.1l-0.3-0.5c-0.1-0.1-0.2-0.4-0.3-0.6s-0.3-0.5-0.4-0.8l-0.4-0.8
		c-0.1-0.3-0.3-0.5-0.3-0.6l-0.4-0.8c-0.2-0.3-0.3-0.7-0.5-1s-0.3-0.7-0.5-1l-0.3-0.6h-0.1l-0.5,5.6c0,0.1,0,0.2,0,0.3v0.3
		c0,0.2,0.1,0.3,0.3,0.4l0.3,0.1h0.2c0.1,0,0.1,0,0.1,0.1s-0.1,0.1-0.2,0.1h-0.4h-0.4h-0.9H237h-0.3c-0.1,0-0.2,0-0.2-0.1
		s0-0.1,0.1-0.1h0.1h0.2c0.2,0,0.4-0.2,0.4-0.4c0-0.2,0.1-0.4,0.1-0.6l0.9-8.2c0-0.1,0.1-0.2,0.1-0.2c0.1,0,0.2,0.1,0.3,0.2l3.9,7.8
		l3.8-7.8c0.1-0.1,0.1-0.2,0.2-0.2C246.7,200.8,246.8,200.9,246.8,201.1z"/>
	<path class="st14" d="M250.8,209l3-7.8c0-0.1,0.1-0.3,0.2-0.4c0,0,0.1-0.1,0.1-0.1c0.1,0,0.1,0,0.2,0.1s0.1,0.2,0.1,0.3
		s0.1,0.3,0.3,0.6l0.5,1.2c0.2,0.4,0.4,0.9,0.6,1.5l0.7,1.6c0.2,0.5,0.4,1,0.6,1.5l0.5,1.2c0.1,0.2,0.2,0.5,0.3,0.7
		c0.1,0.1,0.2,0.3,0.3,0.4c0.1,0.1,0.2,0.2,0.3,0.2l0.2,0.1l0.3,0.1h0.2h0.1c0,0,0,0,0,0.1c0,0,0,0.1-0.1,0.1c-0.1,0-0.1,0-0.2,0
		h-1.4h-0.7h-0.3c-0.1,0-0.1,0-0.1-0.1s0,0,0,0h0.1c0,0,0.1-0.1,0.1-0.1c0,0,0-0.1,0-0.2l-1.1-2.9c0,0-0.1-0.1-0.1-0.1h-3
		c-0.1,0-0.1,0-0.1,0.1l-0.7,2c-0.1,0.3-0.2,0.6-0.2,0.8c0,0.1,0,0.2,0.1,0.3c0.1,0,0.2,0.1,0.3,0.1h0.2c0.1,0,0.1,0,0.1,0.1
		s-0.1,0.1-0.2,0.1h-0.3h-0.4h-1h-0.4h-0.4c-0.2,0-0.3,0-0.3-0.1s0-0.1,0.1-0.1h0.2h0.2c0.3,0,0.5-0.2,0.7-0.4
		C250.6,209.6,250.7,209.3,250.8,209z M252.6,206.4h2.6c0,0,0,0,0-0.1l-1.3-3.4c-0.1-0.2-0.1-0.2-0.2,0L252.6,206.4
		C252.6,206.4,252.6,206.4,252.6,206.4L252.6,206.4z"/>
	<path class="st14" d="M261,206.8v-4.6v-0.3c0-0.2,0-0.3-0.1-0.5c-0.1-0.1-0.3-0.2-0.4-0.2h-0.2H260c-0.1,0-0.1,0-0.1-0.1
		s0.1-0.1,0.2-0.1h3.1c0.4,0,0.8,0,1.3,0.1c0.4,0.1,0.8,0.2,1.2,0.4l0.3,0.2c0.1,0.1,0.2,0.2,0.3,0.4c0.1,0.2,0.2,0.3,0.2,0.5
		c0.1,0.2,0.1,0.4,0.1,0.6c0,0.5-0.1,1-0.3,1.4c-0.3,0.6-0.7,1.1-1.2,1.5c0.5,0.7,1,1.3,1.5,1.8s0.9,1,1.2,1.4
		c0.2,0.3,0.5,0.5,0.9,0.7c0.2,0.1,0.4,0.2,0.6,0.2h0.3h0.2c0.1,0,0.1,0,0.1,0.1c0,0,0,0.1-0.1,0.1c-0.1,0-0.2,0-0.2,0h-0.8
		c-0.3,0-0.6,0-0.9-0.1c-0.2,0-0.4-0.1-0.5-0.2c-0.3-0.2-0.6-0.4-0.8-0.7c-0.3-0.3-0.6-0.7-1-1.2c-0.1-0.2-0.3-0.3-0.4-0.5l-0.4-0.5
		l-0.3-0.4l-0.3-0.3c0,0-0.1-0.1-0.2-0.1h-1.6c-0.1,0-0.1,0-0.1,0.1v0.3c0,0.6,0,1.1,0,1.6c0,0.4,0,0.7,0,1.1c0,0.2,0.1,0.3,0.1,0.4
		c0.1,0.1,0.2,0.2,0.4,0.2l0.3,0.1h0.3c0.1,0,0.1,0,0.1,0.1s-0.1,0.1-0.2,0.1h-0.5H262h-0.5H261h-0.4h-0.4c-0.1,0-0.2,0-0.2-0.1
		c0,0,0-0.1,0.1-0.1c0,0,0,0,0,0h0.2l0.2-0.1c0.1,0,0.2-0.1,0.2-0.2c0-0.1,0.1-0.3,0.1-0.4c0-0.4,0.1-0.7,0.1-1.1L261,206.8z
		 M262.1,201.6v4c0,0.1,0,0.1,0.1,0.2c0.1,0,0.1,0.1,0.2,0.1l0.4,0.1h0.4h0.5c0.2,0,0.3,0,0.5,0c0.2,0,0.3-0.1,0.5-0.2
		c0.2-0.2,0.4-0.4,0.6-0.7c0.2-0.4,0.2-0.8,0.2-1.2c0-0.7-0.2-1.3-0.6-1.8c-0.4-0.4-1-0.7-1.6-0.6h-0.6c-0.1,0-0.2,0-0.4,0.1
		C262.1,201.4,262.1,201.5,262.1,201.6L262.1,201.6z"/>
	<path class="st14" d="M275.5,210.6c-0.8,0-1.7-0.1-2.5-0.3c-0.7-0.2-1.3-0.6-1.8-1c-0.3-0.3-0.6-0.6-0.8-0.9
		c-0.2-0.3-0.4-0.6-0.5-0.9c-0.1-0.3-0.2-0.7-0.2-1c0-0.3-0.1-0.6-0.1-0.9c0-0.2,0-0.5,0.1-0.7c0-0.3,0.1-0.6,0.2-0.9
		c0.1-0.3,0.3-0.6,0.5-0.9c0.2-0.3,0.4-0.6,0.7-0.9c0.2-0.2,0.4-0.4,0.7-0.5c0.3-0.2,0.6-0.3,0.9-0.4c0.4-0.1,0.7-0.2,1.1-0.3
		c0.4-0.1,0.9-0.1,1.3-0.1c0.3,0,0.6,0,0.9,0s0.7,0.1,1,0.1l0.7,0.1c0.2,0,0.4,0.1,0.6,0.1s0.2,0,0.2,0.1s0,0.1,0,0.2s0,0.3,0,0.5
		s0,0.2,0,0.4v0.4c0,0.1,0,0.2,0,0.3c0,0.1,0,0.1,0,0.2c0,0.2,0,0.3-0.1,0.3c-0.1,0-0.1-0.1-0.1-0.3c0-0.2-0.1-0.5-0.1-0.7
		c-0.1-0.2-0.2-0.4-0.4-0.6c-0.3-0.2-0.6-0.4-1-0.5c-0.5-0.1-1-0.2-1.5-0.2c-0.4,0-0.7,0-1.1,0.1c-0.3,0-0.5,0.1-0.8,0.2
		c-0.2,0.1-0.4,0.2-0.6,0.3c-0.1,0.1-0.3,0.2-0.4,0.3c-0.4,0.4-0.8,0.9-0.9,1.5c-0.2,0.6-0.2,1.2-0.2,1.8c0,1.2,0.5,2.3,1.3,3.2
		c0.4,0.4,0.9,0.8,1.5,1c0.6,0.3,1.2,0.4,1.9,0.4c0.4,0,0.8,0,1.2-0.1c0.6-0.1,1-0.5,1.2-1c0.1-0.2,0.1-0.3,0.2-0.5c0,0,0-0.1,0-0.1
		c0,0,0,0,0.1,0s0,0,0.1,0.1c0,0,0,0.1,0,0.1c0,0,0,0.1,0,0.2s0,0.3-0.1,0.4s-0.1,0.3-0.1,0.5s-0.1,0.3-0.1,0.4
		c0,0.1-0.1,0.2-0.1,0.2c-0.1,0.1-0.1,0.1-0.2,0.1c-0.3,0.1-0.7,0.2-1,0.2C276.4,210.5,275.9,210.6,275.5,210.6z"/>
	<path class="st14" d="M280.5,209l3-7.8c0-0.1,0.1-0.3,0.2-0.4c0-0.1,0.1-0.1,0.1-0.1s0.1,0,0.1,0.1l0.2,0.3l0.3,0.6
		c0.1,0.3,0.3,0.7,0.5,1.2s0.4,0.9,0.6,1.5l0.7,1.6c0.2,0.5,0.4,1,0.6,1.5l0.5,1.2c0.1,0.2,0.2,0.5,0.3,0.7c0.1,0.1,0.2,0.3,0.3,0.4
		c0.1,0.1,0.2,0.2,0.3,0.2l0.2,0.1l0.3,0.1h0.2h0.1c0,0,0,0,0,0.1c0,0,0,0.1-0.1,0.1c-0.1,0-0.1,0-0.2,0h-1.4h-0.7h-0.3
		c-0.1,0-0.1,0-0.1-0.1s0,0,0,0h0.1c0.1,0,0.1-0.1,0.1-0.1c0,0,0-0.1,0-0.2l-1.1-2.9c0,0-0.1-0.1-0.1-0.1h-3c-0.1,0-0.1,0-0.1,0.1
		l-0.7,2c-0.1,0.3-0.2,0.6-0.2,0.8c0,0.1,0,0.2,0.1,0.3c0.1,0,0.2,0.1,0.3,0.1h0.1c0.1,0,0.1,0,0.1,0.1s-0.1,0.1-0.2,0.1h-0.3h-0.4
		h-1h-0.4h-0.4c-0.2,0-0.3,0-0.3-0.1s0-0.1,0.1-0.1h0.2h0.2c0.3,0,0.5-0.2,0.7-0.4C280.2,209.6,280.4,209.3,280.5,209z M282.3,206.4
		h2.7c0,0,0.1,0,0-0.1l-1.3-3.4c-0.1-0.2-0.1-0.2-0.2,0L282.3,206.4C282.3,206.4,282.3,206.4,282.3,206.4L282.3,206.4z"/>
	<path class="st14" d="M295.5,206.8v-4.1c0-0.2,0-0.4,0-0.5s0-0.2,0-0.3c0-0.2,0-0.3-0.1-0.5c-0.1-0.1-0.2-0.2-0.4-0.2h-0.2h-0.2
		c-0.1,0-0.1,0-0.1-0.1s0.1-0.1,0.2-0.1h4.4c0.5,0,0.9,0,1.4,0.1c0.5,0.1,1,0.2,1.4,0.4c0.5,0.2,0.9,0.5,1.3,0.9
		c0.4,0.4,0.6,0.8,0.9,1.3c0.3,0.6,0.4,1.2,0.4,1.9c0,0.4,0,0.7-0.1,1.1c-0.1,0.3-0.2,0.7-0.3,1c-0.1,0.3-0.3,0.5-0.5,0.8
		c-0.2,0.2-0.3,0.4-0.5,0.6c-0.2,0.2-0.4,0.3-0.5,0.5c-0.3,0.2-0.5,0.3-0.8,0.5c-0.8,0.3-1.7,0.5-2.6,0.5h-0.9l-0.9-0.1l-0.7-0.1
		h-0.3h-0.5h-0.4h-0.4c-0.1,0-0.2,0-0.2-0.1s0-0.1,0.1-0.1h0.2l0.2-0.1c0.1,0,0.2-0.1,0.2-0.2c0-0.1,0-0.3,0.1-0.4
		c0.1-0.4,0.1-0.7,0.1-1.1C295.5,207.9,295.5,207.4,295.5,206.8z M296.7,201.8v5.9c0,0.2,0,0.4,0,0.6s0,0.3,0,0.3s0,0.3,0,0.5
		c0,0.1,0,0.3,0.1,0.4c0,0.1,0.1,0.1,0.2,0.2c0.1,0.1,0.2,0.1,0.4,0.2c0.2,0.1,0.4,0.1,0.6,0.1c0.3,0,0.7,0,1,0
		c0.6,0,1.1-0.1,1.7-0.3c0.5-0.2,1-0.5,1.4-0.8c0.2-0.2,0.3-0.4,0.4-0.6c0.1-0.2,0.2-0.5,0.3-0.7c0.1-0.3,0.2-0.5,0.2-0.8
		c0-0.3,0.1-0.6,0.1-0.9c0-0.4,0-0.7-0.1-1.1c-0.1-0.3-0.2-0.6-0.3-0.9c-0.1-0.2-0.2-0.5-0.4-0.7c-0.1-0.2-0.3-0.4-0.4-0.5
		c-0.3-0.3-0.6-0.5-1-0.7c-0.3-0.2-0.7-0.3-1-0.4c-0.4-0.1-0.7-0.2-1.1-0.2c-0.4,0-0.8,0-1.1,0h-0.4c-0.1,0-0.2,0-0.3,0.1
		C296.7,201.5,296.7,201.6,296.7,201.8L296.7,201.8z"/>
	<path class="st14" d="M307.3,206.8v-4.6c0-0.1,0-0.2,0-0.3c0-0.2,0-0.3-0.1-0.5c-0.1-0.1-0.2-0.2-0.4-0.2h-0.2h-0.2
		c0,0-0.1,0-0.1-0.1c0,0,0,0,0,0c0-0.1,0.1-0.1,0.2-0.1h4.6h0.4h0.2h0.1c0,0,0.1,0,0.1,0c0,0,0.1,0,0.1,0.1c0,0.1,0,0.1,0,0.2
		c0,0.1,0,0.3-0.1,0.4c0,0,0,0.1,0,0.1c0,0.1,0,0.2,0,0.3s0,0.2,0,0.3c0,0.1,0,0.1,0,0.2c0,0,0,0.1,0,0.1c0,0,0,0-0.1,0
		s-0.1-0.1-0.1-0.2c0-0.1,0-0.1,0-0.2c0-0.1,0-0.2-0.1-0.3c0,0,0-0.1-0.1-0.1c0,0-0.1-0.1-0.2-0.1c-0.1,0-0.2-0.1-0.3-0.1
		c-0.1,0-0.3-0.1-0.4-0.1h-0.4h-0.6h-0.9c0,0-0.1,0-0.1,0.1v3.3c0,0.1,0,0.1,0.1,0.1h1.7h0.4l0.4-0.1c0.1,0,0.2-0.1,0.3-0.1
		c0.1-0.1,0.2-0.2,0.2-0.2s0.1,0,0.1,0.1c0,0.1,0,0.2,0,0.2c0,0.2-0.1,0.3-0.1,0.5c0,0.1,0,0.3,0,0.5s0,0.3,0,0.4c0,0,0,0.1,0,0.1
		c0,0,0,0.1-0.1,0.1c-0.1,0-0.1,0-0.1-0.1c0-0.1,0-0.1,0-0.2c0-0.1,0-0.2,0-0.2c0-0.1-0.1-0.2-0.2-0.2c-0.2-0.1-0.3-0.1-0.5-0.1
		h-0.4h-0.6h-0.9c0,0-0.1,0-0.1,0.1c0,0,0,0,0,0v3.2c0,0.2,0,0.3,0.1,0.5c0,0.1,0.1,0.2,0.2,0.3c0.1,0.1,0.3,0.1,0.5,0.1
		c0.3,0,0.5,0,0.8,0h0.6c0.2,0,0.4,0,0.6-0.1c0.2-0.1,0.3-0.2,0.4-0.3c0.1-0.2,0.2-0.4,0.2-0.6c0-0.1,0.1-0.2,0.1-0.2s0.1,0,0.1,0.1
		c0,0,0,0.1,0,0.1c0,0.1,0,0.1,0,0.2c0,0.1,0,0.2,0,0.4l-0.1,0.4c0,0.1,0,0.2-0.1,0.3c0,0.1,0,0.1-0.1,0.2c0,0-0.1,0.1-0.1,0.1
		c-0.1,0-0.1,0-0.2,0h-0.3h-1.3h-1h-0.7H308h-0.4h-0.4h-0.4c-0.1,0-0.2,0-0.2-0.1s0-0.1,0.1-0.1h0.2h0.2c0.1,0,0.2-0.1,0.3-0.2
		c0-0.1,0.1-0.3,0.1-0.5c0-0.4,0.1-0.7,0.1-1.1L307.3,206.8z"/>
	<path class="st14" d="M316.5,204.6v3.4c0,0.3,0,0.6,0,0.8c0,0.2,0,0.3,0.1,0.5c0,0.1,0.1,0.2,0.1,0.3c0.2,0.1,0.4,0.2,0.6,0.2
		c0.4,0.1,0.8,0.1,1.2,0.1c0.3,0,0.6,0,0.9-0.1c0.2,0,0.5-0.1,0.6-0.3c0.1-0.1,0.2-0.2,0.2-0.3c0.1-0.1,0.1-0.2,0.1-0.4
		c0-0.1,0.1-0.2,0.1-0.2s0.1,0.1,0.1,0.2c0,0.1,0,0.1,0,0.2c0,0.1,0,0.2,0,0.3s0,0.3,0,0.4c0,0.1,0,0.2-0.1,0.3c0,0.1,0,0.1-0.1,0.2
		c0,0-0.1,0.1-0.1,0.1H320h-0.4c-0.9,0-1.6,0-2.3-0.1h-0.8h-0.8h-0.3H315h-0.4c-0.1,0-0.2,0-0.2-0.1s0-0.1,0.1-0.1h0.2l0.2-0.1
		c0.1,0,0.2-0.1,0.2-0.2c0-0.1,0.1-0.3,0.1-0.4c0-0.4,0.1-0.7,0.1-1.1c0-0.5,0-1,0-1.6v-4.1c0-0.2,0-0.4,0-0.5s0-0.2,0-0.3
		c0-0.2,0-0.3-0.1-0.5c0-0.1-0.2-0.2-0.4-0.2h-0.2h-0.2c-0.1,0-0.1,0-0.1-0.1s0.1-0.1,0.2-0.1h2.9c0.1,0,0.2,0,0.2,0.1
		s0,0.1-0.1,0.1h-0.2H317c-0.2,0-0.3,0.1-0.4,0.2c-0.1,0.2-0.1,0.3-0.1,0.5c0,0.1,0,0.2,0,0.3L316.5,204.6L316.5,204.6z"/>
	<path class="st14" d="M327,209l3-7.8c0-0.1,0.1-0.3,0.2-0.4c0-0.1,0.1-0.1,0.1-0.1s0.1,0,0.2,0.1s0.1,0.2,0.1,0.3s0.1,0.3,0.3,0.6
		l0.5,1.2l0.6,1.5l0.6,1.6c0.2,0.5,0.4,1,0.6,1.5s0.4,0.9,0.5,1.2c0.1,0.2,0.2,0.5,0.3,0.7c0.1,0.1,0.2,0.3,0.3,0.4
		c0.1,0.1,0.2,0.2,0.3,0.2l0.2,0.1c0.1,0,0.2,0,0.3,0.1h0.2h0.1c0,0,0.1,0,0,0.1c0,0,0,0.1-0.1,0.1c-0.1,0-0.1,0-0.2,0h-1.4h-0.7
		h-0.3c-0.1,0-0.1,0-0.1-0.1s0,0,0,0h0.1c0,0,0.1-0.1,0.1-0.1c0,0,0-0.1,0-0.2l-1.2-2.9c0,0-0.1-0.1-0.1-0.1h-3
		c-0.1,0-0.1,0-0.1,0.1l-0.7,2c-0.1,0.3-0.2,0.6-0.2,0.8c0,0.1,0,0.2,0.1,0.3c0.1,0,0.2,0.1,0.3,0.1h0.1c0.1,0,0.1,0,0.1,0.1
		s-0.1,0.1-0.2,0.1h-0.3h-0.4h-1H326h-0.4c-0.2,0-0.3,0-0.3-0.1s0-0.1,0.1-0.1h0.2h0.2c0.3,0,0.5-0.2,0.7-0.4
		C326.7,209.6,326.9,209.3,327,209z M328.9,206.4h2.6c0,0,0.1,0,0-0.1l-1.3-3.4c-0.1-0.2-0.1-0.2-0.2,0L328.9,206.4
		C328.8,206.4,328.8,206.4,328.9,206.4L328.9,206.4z"/>
	<path class="st14" d="M341.6,210.6c-0.8,0-1.7-0.1-2.5-0.3c-0.7-0.2-1.3-0.6-1.8-1c-0.6-0.5-1-1.1-1.3-1.8c-0.1-0.3-0.2-0.7-0.2-1
		c0-0.3-0.1-0.6-0.1-0.9c0-0.2,0-0.5,0.1-0.7c0-0.3,0.1-0.6,0.2-0.9c0.1-0.3,0.3-0.6,0.5-0.9c0.2-0.3,0.4-0.6,0.7-0.9
		c0.2-0.2,0.4-0.4,0.7-0.5c0.3-0.2,0.6-0.3,0.9-0.4c0.3-0.1,0.7-0.2,1.1-0.3c0.4-0.1,0.9-0.1,1.4-0.1c0.3,0,0.5,0,0.9,0
		s0.7,0.1,1,0.1l0.7,0.1l0.6,0.1c0.1,0,0.2,0,0.2,0.1s0,0.1,0,0.2s0,0.3,0,0.5s0,0.2,0,0.4s0,0.3,0,0.4v0.4c0,0.1,0,0.1,0,0.2
		c0,0.2,0,0.3-0.1,0.3c-0.1,0-0.1-0.1-0.1-0.3c0-0.2-0.1-0.5-0.1-0.7c-0.1-0.2-0.2-0.4-0.4-0.6c-0.3-0.2-0.6-0.4-1-0.5
		c-0.5-0.1-1-0.2-1.5-0.2c-0.4,0-0.7,0-1.1,0.1c-0.3,0-0.6,0.1-0.8,0.2c-0.2,0.1-0.4,0.2-0.6,0.3c-0.1,0.1-0.3,0.2-0.4,0.3
		c-0.5,0.4-0.8,0.9-1,1.5c-0.1,0.6-0.2,1.2-0.2,1.8c0,1.8,1.1,3.5,2.8,4.2c0.6,0.3,1.2,0.4,1.9,0.4c0.4,0,0.8,0,1.2-0.1
		c0.3-0.1,0.6-0.2,0.9-0.5c0.1-0.2,0.3-0.3,0.3-0.5c0.1-0.2,0.1-0.3,0.2-0.5c0-0.1,0-0.1,0-0.1s0,0,0.1,0c0,0,0.1,0,0.1,0.1
		c0,0,0,0.1,0,0.1c0,0,0,0.1,0,0.2s0,0.3-0.1,0.4s-0.1,0.3-0.1,0.5s-0.1,0.3-0.1,0.4c0,0.1-0.1,0.2-0.1,0.2
		c-0.1,0.1-0.1,0.1-0.2,0.1c-0.3,0.1-0.7,0.2-1,0.2C342.4,210.6,342,210.6,341.6,210.6z"/>
	<path class="st14" d="M347.6,206.8v-4.6c0-0.1,0-0.2,0-0.3c0-0.2,0-0.3-0.1-0.5c-0.1-0.1-0.2-0.2-0.4-0.2h-0.2h-0.2
		c0,0-0.1,0-0.1-0.1c0,0,0,0,0,0c0-0.1,0.1-0.1,0.2-0.1h4.6h0.4h0.2h0.1c0,0,0.1,0,0.1,0c0,0,0.1,0,0.1,0.1c0,0.1,0,0.1,0,0.2
		c0,0.1,0,0.3-0.1,0.4c0,0,0,0.1,0,0.1c0,0.1,0,0.2,0,0.3s0,0.2,0,0.3c0,0.1,0,0.1,0,0.2c0,0,0,0.1,0,0.1c0,0,0,0-0.1,0
		s-0.1-0.1-0.1-0.2c0-0.1,0-0.1,0-0.2c0-0.1,0-0.2-0.1-0.3c0,0,0-0.1-0.1-0.1c0,0-0.1-0.1-0.2-0.1c-0.1,0-0.2-0.1-0.3-0.1
		c-0.1,0-0.3-0.1-0.4-0.1h-0.4H350h-0.9c0,0-0.1,0-0.1,0.1v3.3c0,0.1,0,0.1,0.1,0.1h1.7h0.4l0.4-0.1c0.1,0,0.2-0.1,0.3-0.1
		c0.1-0.1,0.2-0.2,0.2-0.2s0.1,0,0.1,0.1c0,0.1,0,0.2,0,0.2c0,0.2-0.1,0.3-0.1,0.5c0,0.1,0,0.3,0,0.5s0,0.3,0,0.4c0,0,0,0.1,0,0.1
		c0,0,0,0.1-0.1,0.1c-0.1,0-0.1,0-0.1-0.1c0-0.1,0-0.1,0-0.2c0-0.1,0-0.1,0-0.2c0-0.1-0.1-0.2-0.2-0.2c-0.2-0.1-0.3-0.1-0.5-0.1
		h-0.4h-0.6h-0.9c0,0-0.1,0-0.1,0.1c0,0,0,0,0,0v3.2c0,0.2,0,0.3,0.1,0.5c0,0.1,0.1,0.2,0.2,0.3c0.1,0.1,0.3,0.1,0.5,0.1
		c0.3,0,0.5,0,0.8,0h0.6c0.2,0,0.4,0,0.6-0.1c0.2-0.1,0.3-0.2,0.4-0.3c0.1-0.2,0.2-0.4,0.2-0.6c0-0.1,0.1-0.2,0.1-0.2s0.1,0,0.1,0.1
		c0,0,0,0.1,0,0.1c0,0.1,0,0.1,0,0.2c0,0.1,0,0.2,0,0.4l-0.1,0.4c0,0.1,0,0.2-0.1,0.3c0,0.1,0,0.1-0.1,0.2c0,0-0.1,0.1-0.1,0.1h-0.2
		h-0.3h-1.3h-1h-0.7H348h-0.4h-0.4h-0.4c-0.1,0-0.2,0-0.2-0.1s0-0.1,0.1-0.1h0.2h0.2c0.1,0,0.2-0.1,0.3-0.2c0-0.1,0.1-0.3,0.1-0.5
		c0-0.4,0.1-0.7,0.1-1.1L347.6,206.8z"/>
	<path class="st14" d="M355.7,206.8v-4.1c0-0.2,0-0.4,0-0.5s0-0.2,0-0.3c0-0.2,0-0.3-0.1-0.5c-0.1-0.1-0.2-0.2-0.4-0.2H355h-0.2
		c-0.1,0-0.1,0-0.1-0.1s0.1-0.1,0.2-0.1h3.1c0.4,0,0.8,0,1.3,0.1c0.4,0.1,0.8,0.2,1.1,0.4l0.3,0.2c0.1,0.1,0.2,0.2,0.3,0.4
		c0.1,0.2,0.2,0.3,0.2,0.5c0.1,0.2,0.1,0.4,0.1,0.6c0,0.5-0.1,1-0.3,1.4c-0.3,0.6-0.7,1.1-1.3,1.5c0.5,0.7,1,1.3,1.5,1.8
		c0.5,0.5,0.9,1,1.2,1.4c0.2,0.3,0.5,0.5,0.9,0.7c0.2,0.1,0.4,0.2,0.6,0.2h0.3h0.2c0.1,0,0.1,0,0.1,0.1c0,0,0,0.1-0.1,0.1
		c-0.1,0-0.2,0-0.2,0h-0.8c-0.3,0-0.6,0-0.9-0.1c-0.2,0-0.4-0.1-0.5-0.2c-0.3-0.2-0.6-0.4-0.8-0.7c-0.3-0.3-0.6-0.7-1-1.2
		c-0.1-0.2-0.3-0.3-0.4-0.5l-0.4-0.5c-0.1-0.2-0.2-0.3-0.3-0.4l-0.3-0.3c0,0-0.1-0.1-0.2-0.1h-1.6c-0.1,0-0.1,0-0.1,0.1v0.3
		c0,0.6,0,1.1,0,1.6c0,0.4,0,0.7,0,1.1c0,0.2,0.1,0.3,0.1,0.4c0.1,0.1,0.2,0.2,0.4,0.2l0.3,0.1h0.4c0,0,0.1,0,0.1,0.1c0,0,0,0,0,0
		c0,0.1-0.1,0.1-0.2,0.1h-0.5h-0.5h-0.6h-0.5h-0.4H355c-0.1,0-0.2,0-0.2-0.1s0-0.1,0.1-0.1h0.2l0.2-0.1c0.1,0,0.2-0.1,0.2-0.2
		c0-0.1,0.1-0.3,0.1-0.4c0-0.4,0.1-0.7,0.1-1.1C355.7,207.9,355.7,207.4,355.7,206.8z M356.8,201.6v4c0,0.1,0,0.1,0.1,0.2
		c0.1,0,0.1,0.1,0.2,0.1l0.3,0.1h0.4h0.4h0.5c0.2,0,0.3-0.1,0.5-0.2c0.3-0.2,0.4-0.4,0.6-0.7c0.2-0.4,0.2-0.8,0.2-1.2
		c0-0.7-0.2-1.3-0.6-1.8c-0.4-0.4-1-0.7-1.6-0.6h-0.6c-0.1,0-0.2,0-0.4,0.1C356.9,201.4,356.8,201.5,356.8,201.6z"/>
	<path class="st14" d="M364.3,205.7c0-1.2,0.5-2.3,1.2-3.2c1-1.1,2.4-1.7,3.9-1.7c0.7,0,1.4,0.1,2,0.3c0.6,0.2,1.1,0.5,1.6,0.9
		c0.5,0.4,0.8,0.9,1.1,1.5c0.3,0.6,0.4,1.3,0.4,2c0,0.7-0.1,1.4-0.4,2c-0.5,1.2-1.5,2.2-2.7,2.7c-0.7,0.3-1.4,0.4-2.1,0.4
		c-0.8,0-1.6-0.1-2.3-0.4c-0.6-0.3-1.1-0.7-1.6-1.2c-0.4-0.5-0.7-1-0.9-1.6C364.4,206.9,364.3,206.3,364.3,205.7z M365.7,205.3
		c0,0.7,0.1,1.4,0.3,2c0.2,0.6,0.5,1.1,0.9,1.5c0.4,0.4,0.8,0.8,1.3,1c0.8,0.4,1.8,0.4,2.7,0.2c0.4-0.1,0.8-0.3,1.1-0.6
		c0.4-0.4,0.7-0.8,0.9-1.3c0.3-0.7,0.4-1.4,0.4-2.2c0-0.7-0.1-1.4-0.3-2c-0.2-0.5-0.5-1-0.9-1.4c-0.3-0.4-0.8-0.7-1.2-0.9
		c-0.5-0.2-1-0.3-1.5-0.3c-0.5,0-1,0.1-1.5,0.3c-0.4,0.2-0.9,0.4-1.2,0.8c-0.3,0.4-0.6,0.8-0.8,1.3
		C365.8,204.2,365.7,204.7,365.7,205.3z"/>
	<g class="st18">
		<path class="st19" d="M163.5,275.3h11.2V315h-11.2V275.3z"/>
		<path class="st19" d="M220.5,275.3V315h-9.3l-17.5-21.2V315h-11v-39.7h9.3l17.5,21.2v-21.2H220.5z"/>
		<path class="st19" d="M255.1,294.3h9.9v16.5c-2.3,1.6-4.9,2.9-7.8,3.7c-3,0.9-5.9,1.3-8.9,1.3c-4.2,0-7.9-0.9-11.2-2.6
			c-3.3-1.8-5.9-4.2-7.8-7.4c-1.9-3.1-2.8-6.7-2.8-10.7c0-4,0.9-7.5,2.8-10.7c1.9-3.1,4.5-5.6,7.9-7.4c3.4-1.8,7.2-2.6,11.4-2.6
			c3.7,0,7,0.6,10,1.9s5.4,3,7.4,5.4l-7.2,6.5c-2.7-3-5.9-4.4-9.7-4.4c-3.4,0-6.2,1-8.2,3.1c-2.1,2.1-3.1,4.8-3.1,8.3
			c0,2.2,0.5,4.2,1.4,5.9c0.9,1.7,2.3,3.1,4,4c1.7,1,3.7,1.4,5.8,1.4c2.2,0,4.2-0.4,6.1-1.3V294.3z"/>
		<path class="st19" d="M289.6,304.5h-6.1V315h-11.2v-39.7h18.2c3.6,0,6.7,0.6,9.4,1.8c2.6,1.2,4.7,2.9,6.1,5.1
			c1.4,2.2,2.2,4.8,2.2,7.8c0,2.9-0.7,5.4-2,7.5c-1.3,2.1-3.3,3.8-5.8,5l8.6,12.5h-12L289.6,304.5z M294.9,285.7
			c-1.2-1-2.9-1.5-5.2-1.5h-6.2v11.6h6.2c2.3,0,4-0.5,5.2-1.5c1.2-1,1.8-2.4,1.8-4.3S296.1,286.7,294.9,285.7z"/>
		<path class="st19" d="M346.1,306.3v8.7h-31.9v-39.7h31.2v8.7h-20v6.7H343v8.4h-17.7v7.3H346.1z"/>
		<path class="st19" d="M356.9,314.6c-3-0.8-5.5-1.9-7.4-3.2l3.7-8.3c1.8,1.2,3.8,2.1,6.2,2.8c2.3,0.7,4.7,1.1,6.9,1.1
			c4.3,0,6.5-1.1,6.5-3.2c0-1.1-0.6-2-1.8-2.5c-1.2-0.5-3.2-1.1-5.9-1.7c-3-0.6-5.5-1.3-7.5-2.1s-3.7-1.9-5.2-3.5
			c-1.4-1.6-2.2-3.8-2.2-6.6c0-2.4,0.7-4.6,2-6.6c1.3-1.9,3.3-3.5,5.9-4.6c2.6-1.1,5.9-1.7,9.7-1.7c2.6,0,5.2,0.3,7.7,0.9
			c2.5,0.6,4.8,1.4,6.7,2.6l-3.5,8.3c-3.8-2-7.5-3.1-11-3.1c-2.2,0-3.9,0.3-4.9,1c-1,0.7-1.5,1.5-1.5,2.6c0,1.1,0.6,1.9,1.8,2.4
			c1.2,0.5,3.2,1.1,5.8,1.6c3,0.6,5.5,1.3,7.5,2.1c2,0.7,3.7,1.9,5.2,3.5s2.2,3.8,2.2,6.6c0,2.4-0.7,4.5-2,6.5
			c-1.3,1.9-3.3,3.5-6,4.6c-2.7,1.2-5.9,1.7-9.7,1.7C363.1,315.8,360,315.4,356.9,314.6z"/>
		<path class="st19" d="M415.7,307.3h-16.8l-3.1,7.7h-11.5l17.5-39.7h11.1l17.6,39.7h-11.7L415.7,307.3z M412.4,299l-5.1-12.7
			l-5.1,12.7H412.4z"/>
	</g>
	<g class="st18">
		<path class="st19" d="M168.6,345.5v6.1h-2.5v-6.2l-7-11.5h2.7l5.7,9.3l5.7-9.3h2.5L168.6,345.5z"/>
	</g>
	<g class="st20">
		<path class="st19" d="M188.1,350.6c-1.4-0.8-2.5-1.9-3.4-3.2c-0.8-1.4-1.2-2.9-1.2-4.6c0-1.7,0.4-3.3,1.2-4.6
			c0.8-1.4,1.9-2.5,3.4-3.2c1.4-0.8,3-1.2,4.8-1.2c1.4,0,2.6,0.2,3.8,0.7s2.1,1.2,2.9,2.1L198,338c-1.3-1.4-3-2.1-5-2.1
			c-1.3,0-2.5,0.3-3.6,0.9c-1.1,0.6-1.9,1.4-2.5,2.4c-0.6,1-0.9,2.2-0.9,3.5c0,1.3,0.3,2.4,0.9,3.5c0.6,1,1.4,1.9,2.5,2.4
			c1.1,0.6,2.3,0.9,3.6,0.9c2,0,3.6-0.7,5-2.1l1.6,1.6c-0.8,0.9-1.8,1.6-2.9,2.1c-1.2,0.5-2.4,0.7-3.8,0.7
			C191.1,351.8,189.5,351.4,188.1,350.6z"/>
	</g>
	<g class="st20">
		<path class="st19" d="M206,350.6c-1.4-0.8-2.6-1.9-3.4-3.3c-0.8-1.4-1.2-2.9-1.2-4.6c0-1.7,0.4-3.2,1.2-4.6
			c0.8-1.4,1.9-2.5,3.4-3.3c1.4-0.8,3-1.2,4.8-1.2c1.8,0,3.4,0.4,4.8,1.2c1.4,0.8,2.6,1.9,3.4,3.2c0.8,1.4,1.2,2.9,1.2,4.6
			c0,1.7-0.4,3.3-1.2,4.6c-0.8,1.4-1.9,2.5-3.4,3.2c-1.4,0.8-3,1.2-4.8,1.2C209.1,351.8,207.5,351.4,206,350.6z M214.4,348.7
			c1-0.6,1.9-1.4,2.5-2.4s0.9-2.2,0.9-3.5c0-1.3-0.3-2.4-0.9-3.5s-1.4-1.9-2.5-2.4c-1-0.6-2.2-0.9-3.5-0.9s-2.5,0.3-3.5,0.9
			c-1.1,0.6-1.9,1.4-2.5,2.4s-0.9,2.2-0.9,3.5c0,1.3,0.3,2.4,0.9,3.5s1.4,1.9,2.5,2.4s2.2,0.9,3.5,0.9S213.3,349.3,214.4,348.7z"/>
		<path class="st19" d="M239.4,333.9v17.7h-2.1l-10.6-13.2v13.2h-2.5v-17.7h2.1l10.6,13.2v-13.2H239.4z"/>
		<path class="st19" d="M247.8,350.6c-1.4-0.8-2.6-1.9-3.4-3.3c-0.8-1.4-1.2-2.9-1.2-4.6c0-1.7,0.4-3.2,1.2-4.6
			c0.8-1.4,1.9-2.5,3.4-3.3c1.4-0.8,3-1.2,4.8-1.2c1.8,0,3.4,0.4,4.8,1.2c1.4,0.8,2.6,1.9,3.4,3.2c0.8,1.4,1.2,2.9,1.2,4.6
			c0,1.7-0.4,3.3-1.2,4.6c-0.8,1.4-1.9,2.5-3.4,3.2c-1.4,0.8-3,1.2-4.8,1.2C250.9,351.8,249.3,351.4,247.8,350.6z M256.2,348.7
			c1-0.6,1.9-1.4,2.5-2.4s0.9-2.2,0.9-3.5c0-1.3-0.3-2.4-0.9-3.5s-1.4-1.9-2.5-2.4c-1-0.6-2.2-0.9-3.5-0.9c-1.3,0-2.5,0.3-3.5,0.9
			c-1.1,0.6-1.9,1.4-2.5,2.4c-0.6,1-0.9,2.2-0.9,3.5c0,1.3,0.3,2.4,0.9,3.5c0.6,1,1.4,1.9,2.5,2.4c1.1,0.6,2.2,0.9,3.5,0.9
			C254,349.6,255.1,349.3,256.2,348.7z"/>
		<path class="st19" d="M269,350.6c-1.4-0.8-2.5-1.9-3.4-3.2c-0.8-1.4-1.2-2.9-1.2-4.6c0-1.7,0.4-3.3,1.2-4.6
			c0.8-1.4,1.9-2.5,3.4-3.2c1.4-0.8,3-1.2,4.8-1.2c1.4,0,2.6,0.2,3.8,0.7c1.1,0.5,2.1,1.2,2.9,2.1L279,338c-1.3-1.4-3-2.1-5-2.1
			c-1.3,0-2.5,0.3-3.6,0.9c-1.1,0.6-1.9,1.4-2.5,2.4c-0.6,1-0.9,2.2-0.9,3.5c0,1.3,0.3,2.4,0.9,3.5c0.6,1,1.4,1.9,2.5,2.4
			c1.1,0.6,2.3,0.9,3.6,0.9c2,0,3.6-0.7,5-2.1l1.6,1.6c-0.8,0.9-1.8,1.6-2.9,2.1c-1.2,0.5-2.4,0.7-3.8,0.7
			C272.1,351.8,270.5,351.4,269,350.6z"/>
		<path class="st19" d="M297.1,349.4v2.2h-12.9v-17.7h12.5v2.2h-10v5.4h8.9v2.2h-8.9v5.7H297.1z"/>
		<path class="st19" d="M323.2,333.9v17.7h-2.1l-10.6-13.2v13.2H308v-17.7h2.1l10.6,13.2v-13.2H323.2z"/>
		<path class="st19" d="M330.3,349.8c-1.3-1.3-2-3.3-2-5.8v-10.1h2.5v10c0,3.8,1.7,5.7,5,5.7c1.6,0,2.9-0.5,3.7-1.4
			c0.9-0.9,1.3-2.4,1.3-4.3v-10h2.5V344c0,2.5-0.7,4.5-2,5.8s-3.2,2-5.5,2S331.7,351.1,330.3,349.8z"/>
		<path class="st19" d="M361.4,349.4v2.2h-12.9v-17.7H361v2.2h-10v5.4h8.9v2.2h-8.9v5.7H361.4z"/>
	</g>
	<g class="st20">
		<path class="st19" d="M366.8,351.2c-1.2-0.4-2.2-0.9-2.9-1.6l0.9-2c0.7,0.6,1.5,1.1,2.6,1.5c1.1,0.4,2.1,0.6,3.3,0.6
			c1.5,0,2.6-0.2,3.3-0.7c0.7-0.5,1.1-1.2,1.1-2c0-0.6-0.2-1.1-0.6-1.5c-0.4-0.4-0.9-0.7-1.5-0.9s-1.4-0.4-2.5-0.7
			c-1.3-0.3-2.4-0.6-3.2-1c-0.8-0.3-1.5-0.8-2.1-1.5c-0.6-0.7-0.9-1.6-0.9-2.7c0-0.9,0.2-1.8,0.7-2.6c0.5-0.8,1.3-1.4,2.3-1.8
			c1-0.5,2.3-0.7,3.8-0.7c1,0,2.1,0.1,3.1,0.4c1,0.3,1.9,0.7,2.6,1.2l-0.8,2c-0.7-0.5-1.5-0.8-2.4-1.1c-0.8-0.2-1.7-0.4-2.5-0.4
			c-1.4,0-2.5,0.3-3.2,0.8s-1.1,1.2-1.1,2c0,0.6,0.2,1.1,0.6,1.5c0.4,0.4,0.9,0.7,1.5,0.9s1.4,0.4,2.4,0.7c1.3,0.3,2.4,0.6,3.2,1
			s1.5,0.8,2.1,1.5c0.6,0.7,0.9,1.5,0.9,2.7c0,0.9-0.3,1.8-0.8,2.5c-0.5,0.8-1.3,1.4-2.3,1.8c-1,0.4-2.3,0.7-3.8,0.7
			C369.3,351.8,368,351.6,366.8,351.2z"/>
	</g>
	<g class="st20">
		<path class="st19" d="M384.5,336.1h-6.1v-2.2H393v2.2H387v15.5h-2.5V336.1z"/>
		<path class="st19" d="M407.6,351.6l-3.8-5.4c-0.5,0-0.8,0.1-1.1,0.1h-4.4v5.4h-2.5v-17.7h6.9c2.3,0,4.1,0.5,5.4,1.6
			c1.3,1.1,2,2.6,2,4.5c0,1.4-0.3,2.5-1,3.5c-0.7,1-1.6,1.7-2.9,2.1l4.2,5.9H407.6z M406.3,343c0.8-0.7,1.3-1.7,1.3-3
			c0-1.3-0.4-2.3-1.3-2.9c-0.8-0.7-2.1-1-3.7-1h-4.3v8h4.3C404.2,344.1,405.5,343.7,406.3,343z"/>
		<path class="st19" d="M425.5,347.2h-9.4l-1.9,4.4h-2.6l8-17.7h2.5l8,17.7h-2.7L425.5,347.2z M424.6,345.2l-3.8-8.7l-3.8,8.7H424.6
			z"/>
	</g>
	<g class="st20">
		<path class="st19" d="M182.7,369.1h-6.1v-2.2h14.6v2.2h-6.1v15.5h-2.5V369.1z"/>
		<path class="st19" d="M194,366.9h2.5v17.7H194V366.9z"/>
		<path class="st19" d="M214.7,382.4v2.2h-12.9v-17.7h12.5v2.2h-10v5.4h8.9v2.2h-8.9v5.7H214.7z"/>
		<path class="st19" d="M234,366.9v17.7H232l-10.6-13.2v13.2h-2.5v-17.7h2.1l10.6,13.2v-13.2H234z"/>
	</g>
	<g class="st20">
		<path class="st19" d="M239.4,366.9h7.5c1.9,0,3.5,0.4,5,1.1c1.5,0.7,2.6,1.8,3.4,3.1c0.8,1.3,1.2,2.9,1.2,4.6
			c0,1.7-0.4,3.3-1.2,4.6c-0.8,1.3-1.9,2.4-3.4,3.1c-1.5,0.7-3.1,1.1-5,1.1h-7.5V366.9z M246.7,382.4c1.4,0,2.7-0.3,3.8-0.8
			s1.9-1.3,2.5-2.3c0.6-1,0.9-2.2,0.9-3.5c0-1.3-0.3-2.5-0.9-3.5c-0.6-1-1.4-1.8-2.5-2.3s-2.3-0.8-3.8-0.8h-4.8v13.3H246.7z"/>
	</g>
	<g class="st20">
		<path class="st19" d="M271.3,380.2h-9.4l-1.9,4.4h-2.6l8-17.7h2.5l8,17.7h-2.7L271.3,380.2z M270.4,378.2l-3.8-8.7l-3.8,8.7H270.4
			z"/>
		<path class="st19" d="M298.2,382.4v2.2h-12.9v-17.7h12.5v2.2h-10v5.4h8.9v2.2h-8.9v5.7H298.2z"/>
		<path class="st19" d="M317.5,366.9v17.7h-2.1l-10.6-13.2v13.2h-2.5v-17.7h2.1l10.6,13.2v-13.2H317.5z"/>
		<path class="st19" d="M329.6,366.9h2.5v15.5h9.6v2.2h-12.1V366.9z"/>
		<path class="st19" d="M344.7,366.9h2.5v17.7h-2.5V366.9z"/>
		<path class="st19" d="M367.7,366.9v17.7h-2.1L355,371.4v13.2h-2.5v-17.7h2.1l10.6,13.2v-13.2H367.7z"/>
		<path class="st19" d="M385.9,382.4v2.2H373v-17.7h12.5v2.2h-10v5.4h8.9v2.2h-8.9v5.7H385.9z"/>
		<path class="st19" d="M401.3,380.2h-9.4l-1.9,4.4h-2.6l8-17.7h2.5l8,17.7h-2.7L401.3,380.2z M400.4,378.2l-3.8-8.7l-3.8,8.7H400.4
			z"/>
	</g>
	<rect y="0" class="st17" width="590" height="789.3"/>
</g>
</svg>
