<?xml version="1.0" encoding="utf-8"?>
<!-- Generator: Adobe Illustrator 19.0.0, SVG Export Plug-In . SVG Version: 6.00 Build 0)  -->
<svg version="1.1" id="Capa_1" xmlns="http://www.w3.org/2000/svg" xmlns:xlink="http://www.w3.org/1999/xlink" x="0px" y="0px"
	 viewBox="0 0 1366 1366" style="enable-background:new 0 0 1366 1366;" xml:space="preserve">
<style type="text/css">
	.st0{clip-path:url(#SVGID_2_);fill:#F83201;}
	.st1{clip-path:url(#SVGID_2_);fill:#EC8800;}
	.st2{clip-path:url(#SVGID_2_);fill:#FF9800;}
</style>
<g>
	<defs>
		<rect id="SVGID_1_" width="1366" height="1366"/>
	</defs>
	<clipPath id="SVGID_2_">
		<use xlink:href="#SVGID_1_"  style="overflow:visible;"/>
	</clipPath>
	<path class="st0" d="M489,70c-53.6,0-101,35-116.9,86.3L19.2,1295.9c113.3,0,214-78.1,249.8-193.8L588.6,70H489z"/>
	<path class="st0" d="M704.9,810.5c-5.7-32.3-30.5-129.3-122.3-130.5c-2,0-4-0.1-5.9-0.1c-9.6-0.4-46-0.9-83.7,14.2
		c-17.5,7-37,8.6-55.1,3.4c-8-2.3-15.2-5.7-18.8-10.6c-1.1-1.5-3.6-1-3.8,0.9c-2.7,21.6-4.6,80.5,49,100.5c12,4.5,24.9,6,37.6,5.1
		c15.2-1.1,41.2-4.5,72-14.6c44.8-14.8,94.8-2.6,125.1,32.4c0.4,0.5,0.8,1,1.3,1.5C701.8,814.7,705.3,813.2,704.9,810.5"/>
	<path class="st1" d="M596.2,613.9L596.2,613.9c84.7,0,153.3-81.4,153.3-181.7V70H596.2V613.9z"/>
	<path class="st1" d="M794.4,605.4c0,0,91.4-114.7,233.7-70.1C1028.1,535.3,977.5,674.9,794.4,605.4"/>
	<path class="st2" d="M1172.9,601.1H990.5l-19.7,136.1c184.8,8.5,182.7,182.7,182.7,182.7c-12.7,178.5-182.7,182.7-182.7,182.7
		C761.5,1082,790.5,891.3,792.1,881.8c-0.1-0.1-0.1-0.2-0.2-0.3c-102,24.6-130.1,95.8-134,157.5c-4,63.7,34.2,142,83.5,182.7
		c97.4,80.4,197.6,76,223.9,73.1c6.9-0.7,13.7-1.3,20.6-1.9c358.9-29.2,361-374,361-374C1344.7,701.2,1172.9,601.1,1172.9,601.1
		 M984.9,1104.1c1.2,0.1,2.4,0.2,3.7,0.4C987.4,1104.3,986.2,1104.2,984.9,1104.1 M970.9,1102.7
		C970.9,1102.7,970.9,1102.7,970.9,1102.7C970.9,1102.7,970.9,1102.7,970.9,1102.7 M971.3,1102.8
		C971.4,1102.8,971.4,1102.8,971.3,1102.8C971.4,1102.8,971.4,1102.8,971.3,1102.8 M971.9,1102.8c0.1,0,0.3,0,0.4,0
		C972.2,1102.8,972,1102.8,971.9,1102.8 M978.6,1103.5c0.4,0,0.8,0.1,1.1,0.1C979.3,1103.5,978.9,1103.5,978.6,1103.5 M981.4,1103.7
		c0.7,0.1,1.4,0.1,2.2,0.2C982.8,1103.9,982.1,1103.8,981.4,1103.7 M1066.1,1112.1C1066.1,1112.1,1066.1,1112.1,1066.1,1112.1
		 M996.6,1105.3c0.8,0.1,1.6,0.2,2.4,0.2C998.2,1105.4,997.4,1105.3,996.6,1105.3 M1004.7,1106.1c2.4,0.2,4.9,0.5,7.4,0.7
		C1009.7,1106.6,1007.2,1106.3,1004.7,1106.1 M1020.6,1107.6C1020.7,1107.6,1020.7,1107.6,1020.6,1107.6
		C1020.7,1107.6,1020.7,1107.6,1020.6,1107.6 M1024.5,1108c0.7,0.1,1.5,0.1,2.2,0.2C1026,1108.2,1025.3,1108.1,1024.5,1108
		 M1028.8,1108.4c1,0.1,1.9,0.2,2.8,0.3C1030.7,1108.6,1029.8,1108.5,1028.8,1108.4 M1036.3,1109.2c2,0.2,4,0.4,5.9,0.6
		C1040.4,1109.6,1038.4,1109.4,1036.3,1109.2 M1043.5,1109.9c2.7,0.3,5.2,0.5,7.6,0.7C1048.8,1110.4,1046.3,1110.2,1043.5,1109.9
		 M1057.5,1111.3c0.3,0,0.5,0.1,0.8,0.1C1058.1,1111.3,1057.8,1111.3,1057.5,1111.3 M1060.7,1111.6
		C1060.7,1111.6,1060.7,1111.6,1060.7,1111.6C1060.7,1111.6,1060.7,1111.6,1060.7,1111.6 M1061.9,1111.7c0.8,0.1,1.5,0.1,2.1,0.2
		C1063.4,1111.9,1062.7,1111.8,1061.9,1111.7 M1064.5,1112c0.3,0,0.6,0.1,0.8,0.1C1065.1,1112,1064.8,1112,1064.5,1112
		 M1065.5,1112.1c0.2,0,0.3,0,0.4,0C1065.9,1112.1,1065.7,1112.1,1065.5,1112.1 M1153.5,919.8c0-0.1,0-0.2,0-0.3
		C1153.5,919.6,1153.5,919.7,1153.5,919.8 M1153.5,919.5c0-0.1,0-0.3,0-0.4C1153.5,919.2,1153.5,919.3,1153.5,919.5 M1153.6,918
		c0-0.4,0.1-0.8,0.1-1.3C1153.7,917.1,1153.6,917.5,1153.6,918 M1159.1,841.3C1159.1,840.5,1159.1,840.4,1159.1,841.3 M1153.9,914.3
		c0-0.4,0.1-0.8,0.1-1.3C1153.9,913.4,1153.9,913.9,1153.9,914.3 M1154,911.8L1154,911.8C1154,911.8,1154,911.8,1154,911.8
		 M1154.1,910.6c0.1-0.7,0.1-1.4,0.2-2.1C1154.2,909.2,1154.2,909.9,1154.1,910.6 M1154.5,906.1c0-0.5,0.1-1,0.1-1.5
		C1154.5,905.1,1154.5,905.6,1154.5,906.1 M1154.7,903.3c0.1-1.7,0.2-3.5,0.4-5.3C1154.9,899.6,1154.8,901.4,1154.7,903.3
		 M1155.3,894.1c0-0.3,0-0.7,0.1-1C1155.4,893.4,1155.3,893.7,1155.3,894.1 M1155.6,890c0.3-3.8,0.5-7.7,0.8-11.5
		C1156.2,882,1155.9,885.8,1155.6,890 M1156.6,876.2c0-0.6,0.1-1.2,0.1-1.8C1156.7,875,1156.6,875.6,1156.6,876.2 M1156.7,874.1
		c0.1-0.8,0.1-1.6,0.2-2.3C1156.9,872.6,1156.8,873.3,1156.7,874.1 M1156.9,871.4c0-0.7,0.1-1.3,0.1-2
		C1157,870.1,1157,870.7,1156.9,871.4 M1157.2,868.2c0.1-0.8,0.1-1.6,0.2-2.5C1157.3,866.5,1157.2,867.3,1157.2,868.2 M1157.5,863
		c0.1-1.2,0.2-2.3,0.2-3.4C1157.7,860.7,1157.6,861.8,1157.5,863 M1158.1,855.5c0.1-0.7,0.1-1.4,0.1-2
		C1158.2,854.1,1158.1,854.8,1158.1,855.5 M1158.4,851.4c0.1-1.4,0.2-2.7,0.3-3.8C1158.6,848.7,1158.5,849.9,1158.4,851.4
		 M1158.8,845.4c0.1-0.7,0.1-1.3,0.1-1.9C1158.9,844.1,1158.8,844.7,1158.8,845.4 M1159,842.4c0-0.3,0-0.5,0.1-0.7
		C1159,841.9,1159,842.1,1159,842.4"/>
	<path class="st2" d="M596.2,70h270.4c0,0,331.4-2.1,352.7,352.7c0,0,5.2,168.2-135,277.5c-57.8,45.1-136.8,52.8-201,17.6
		c-34.2-18.7-68.1-50.2-91.8-102.7c-2.7-6,3-12.4,9.3-10.4c50.1,15.7,204.1,47.8,251.5-132.4c12.6-48.1,7.4-99.4-16.1-143.2
		c-23.6-44-69.1-88.6-156.7-98c-6.7-0.7-13.4-1-20.1-1h-103C667.8,230,596.2,158.4,596.2,70z"/>
</g>
</svg>
